P01 Final Project - A Hugo website
…
performances

## # A tibble: 1,726 x 11
##    performance_id competition    program   name     nation  rank starting_number
##    <chr>          <chr>          <chr>     <chr>    <chr>  <dbl>           <dbl>
##  1 6e4bd41ac5     Grand Prix Fi~ ICE DANC~ Anna CA~ ITA        5               1
##  2 562c01c5a6     Grand Prix Fi~ ICE DANC~ Madison~ USA        4               2
##  3 2de894c029     Grand Prix Fi~ ICE DANC~ Madison~ USA        3               3
##  4 06e4b8b67e     Grand Prix Fi~ ICE DANC~ Maia SH~ USA        6               4
##  5 72e3228deb     Grand Prix Fi~ ICE DANC~ Tessa V~ CAN        2               5
##  6 08c6ee8862     Grand Prix Fi~ ICE DANC~ Gabriel~ FRA        1               6
##  7 c080766775     Grand Prix Fi~ ICE DANC~ Anna CA~ ITA        6               1
##  8 4edddce1b5     Grand Prix Fi~ ICE DANC~ Madison~ USA        4               2
##  9 57288bfe78     Grand Prix Fi~ ICE DANC~ Madison~ USA        5               3
## 10 a6d14ef399     Grand Prix Fi~ ICE DANC~ Maia SH~ USA        3               4
## # ... with 1,716 more rows, and 4 more variables: total_segment_score <dbl>,
## #   total_element_score <dbl>, total_component_score <dbl>,
## #   total_deductions <dbl>

Analysing Ladies Free Skating Results

To begin, a subset (ladies_free) was created, as shown below.

ladies_free <- performances %>% 
  select(everything()) %>%
  filter(program == "LADIES FREE SKATING")
ladies_free

## # A tibble: 218 x 11
##    performance_id competition      program   name   nation  rank starting_number
##    <chr>          <chr>            <chr>     <chr>  <chr>  <dbl>           <dbl>
##  1 4d370c29a7     Grand Prix Fina~ LADIES F~ Carol~ ITA        3               1
##  2 b917f2d80a     Grand Prix Fina~ LADIES F~ Maria~ RUS        2               2
##  3 d4a4d3d2fb     Grand Prix Fina~ LADIES F~ Wakab~ JPN        6               3
##  4 3e969440ef     Grand Prix Fina~ LADIES F~ Kaetl~ CAN        5               4
##  5 5e8023f5f0     Grand Prix Fina~ LADIES F~ Alina~ RUS        1               5
##  6 0e9192775c     Grand Prix Fina~ LADIES F~ Satok~ JPN        4               6
##  7 5ebb06bf1a     ISU European Fi~ LADIES F~ Anne ~ NOR       23               1
##  8 6ac39fa131     ISU European Fi~ LADIES F~ Angel~ LAT       18               2
##  9 1ee711d597     ISU European Fi~ LADIES F~ Natas~ GBR       16               3
## 10 686cffa69c     ISU European Fi~ LADIES F~ Natha~ GER       17               4
## # ... with 208 more rows, and 4 more variables: total_segment_score <dbl>,
## #   total_element_score <dbl>, total_component_score <dbl>,
## #   total_deductions <dbl>
…
